 ________________________________________________________
 Matrix:
 ________________________________________________________
   2.0000000000000000        3.0000000000000000       -1.0000000000000000      |   1.0000000000000000     
   4.0000000000000000        7.0000000000000000        1.0000000000000000      |   3.0000000000000000     
   7.0000000000000000        10.000000000000000       -4.0000000000000000      |   4.0000000000000000     
 
 Gaussian elimination........
 ***********************
   2.0000000000000000        3.0000000000000000       -1.0000000000000000      |   1.0000000000000000     
   0.0000000000000000        1.0000000000000000        3.0000000000000000      |   1.0000000000000000     
   0.0000000000000000        0.0000000000000000        1.0000000000000000      |   1.0000000000000000     
 
 back subs......
 ***********************
   2.0000000000000000        0.0000000000000000        0.0000000000000000      |   4.0000000000000000     
   0.0000000000000000        1.0000000000000000        0.0000000000000000      |  -2.0000000000000000     
   0.0000000000000000        0.0000000000000000        1.0000000000000000      |   1.0000000000000000     
 
 The solution vector is;
   4.0000000000000000     
  -2.0000000000000000     
   1.0000000000000000     
 
 ________________________________________________________
 Transpose:
 ________________________________________________________
   2.0000000000000000        4.0000000000000000        7.0000000000000000      |   1.0000000000000000     
   3.0000000000000000        7.0000000000000000        10.000000000000000      |   3.0000000000000000     
  -1.0000000000000000        1.0000000000000000       -4.0000000000000000      |   4.0000000000000000     
 
 Gaussian elimination........
 ***********************
   2.0000000000000000        4.0000000000000000        7.0000000000000000      |   1.0000000000000000     
   0.0000000000000000        1.0000000000000000      -0.50000000000000000      |   1.5000000000000000     
   0.0000000000000000        0.0000000000000000        1.0000000000000000      |   0.0000000000000000     
 
 back subs......
 ***********************
   2.0000000000000000        0.0000000000000000        0.0000000000000000      |  -2.5000000000000000     
   0.0000000000000000        1.0000000000000000        0.0000000000000000      |   1.5000000000000000     
   0.0000000000000000        0.0000000000000000        1.0000000000000000      |   0.0000000000000000     
 
 The solution vector is;
  -2.5000000000000000     
   1.5000000000000000     
   0.0000000000000000     
